…
## COCI methods

OpenCitations Index of Crossref open DOI-to-DOI references

If you don't load `tibble` you get normal data.frame's


```r
library(tibble)
doi1 <- "10.1108/jd-12-2013-0166"
# references
oc_coci_refs(doi1)
#> # A tibble: 36 x 7
#>    citing   timespan journal_sc oci           creation author_sc cited     
#>  * <chr>    <chr>    <chr>      <chr>         <chr>    <chr>     <chr>     
#>  1 10.1108… P9Y2M5D  no         020010100083… 2015-03… no        10.1001/j…
#>  2 10.1108… P41Y8M   no         020010100083… 2015-03… no        10.1002/a…
#>  3 10.1108… P25Y6M   no         020010100083… 2015-03… no        10.1002/(…
#>  4 10.1108… P17Y2M   no         020010100083… 2015-03… no        10.1007/b…
#>  5 10.1108… P2Y2M3D  no         020010100083… 2015-03… no        10.1007/s…
#>  6 10.1108… P5Y8M27D no         020010100083… 2015-03… no        10.1007/s…
#>  7 10.1108… P2Y3M    no         020010100083… 2015-03… no        10.1016/j…
#>  8 10.1108… P1Y10M   no         020010100083… 2015-03… no        10.1016/j…
#>  9 10.1108… P12Y     no         020010100083… 2015-03… no        10.1023/a…
#> 10 10.1108… P13Y10M  no         020010100083… 2015-03… no        10.1038/3…
#> # … with 26 more rows
…
